Analzying GazePoint Pupil Data With GazeR | Jason Geller – Jason Geller, Ph.D.
…
gp_file<-list.files(here::here(), pattern = "eye_13.tsv") # get files 

setwd(here())
      
d=merge_gazepoint(gp_file, trial_msg = "START")

d$subject<-as.numeric(d$subject)

pdb <- full_join(bs, d)

pdb <- as_tibble(pdb)

pdb

# A tibble: 73,724 × 10
   subject trial tone     rt response  time pupil     x     y message
     <dbl> <dbl> <chr> <int> <chr>    <dbl> <dbl> <dbl> <dbl> <chr>  
 1      13     1 lo     2113 None         0  4.80 -4.45 -14.1 START  
 2      13     1 lo     2113 None        16  4.78 -4.45 -14.1 START  
 3      13     1 lo     2113 None        32  4.79 -4.32 -13.7 START  
 4      13     1 lo     2113 None        48  4.80 -4.58 -14.5 START  
 5      13     1 lo     2113 None        64  4.80 -4.58 -14.5 START  
 6      13     1 lo     2113 None        81  4.79 -4.63 -14.7 START  
 7      13     1 lo     2113 None        97  4.81 -4.42 -14.0 START  
 8      13     1 lo     2113 None       113  4.80 -4.42 -14.0 TONE   
 9      13     1 lo     2113 None       129  4.78 -4.23 -13.5 TONE   
10      13     1 lo     2113 None       145  4.77 -4.34 -13.8 TONE   
# ℹ 73,714 more rows
…
baseline_pupil_onset<-max_removal %>%
  dplyr::group_by(subject, trial) %>%
  dplyr::filter(time <= 1500) %>%
  select(subject, trial, time,baselinecorrectedp, tone, time,message,baselinecorrectedp)

Downsample

Downsample the time-course to 50 ms.

#downsample
timebins1<- downsample_gaze(baseline_pupil_onset, bin.length=50, timevar = "time", aggvars = c("subject", "tone", "timebins"), type="pupil")

timebins1

# A tibble: 62 × 4
   subject tone  timebins aggbaseline
     <dbl> <chr>    <dbl>       <dbl>
 1      13 hi           0    0.00130 
 2      13 hi          50   -0.000752
 3      13 hi         100   -0.00206 
 4      13 hi         150    0.000331
 5      13 hi         200    0.00530 
 6      13 hi         250    0.00503 
 7      13 hi         300    0.00826 
 8      13 hi         350    0.00930 
 9      13 hi         400    0.0116  
10      13 hi         450    0.0125  
# ℹ 52 more rows
…
